<?xml version="1.0" encoding="utf-8"?>
<!-- Generator: Adobe Illustrator 16.0.0, SVG Export Plug-In . SVG Version: 6.00 Build 0)  -->
<!DOCTYPE svg PUBLIC "-//W3C//DTD SVG 1.1//EN" "http://www.w3.org/Graphics/SVG/1.1/DTD/svg11.dtd">
<svg version="1.1" id="Layer_1" xmlns="http://www.w3.org/2000/svg" xmlns:xlink="http://www.w3.org/1999/xlink" x="0px" y="0px"
	 width="100px" height="100px" viewBox="0 0 100 100" enable-background="new 0 0 100 100" xml:space="preserve">
<g>
	<defs>
		<rect id="SVGID_1_" width="100" height="100"/>
	</defs>
	<clipPath id="SVGID_2_">
		<use xlink:href="#SVGID_1_"  overflow="visible"/>
	</clipPath>
	
		<circle clip-path="url(#SVGID_2_)" fill="none" stroke="#B2B2B2" stroke-width="6" stroke-miterlimit="10" cx="50" cy="50" r="47"/>
	
		<line clip-path="url(#SVGID_2_)" fill="none" stroke="#B2B2B2" stroke-width="6" stroke-miterlimit="10" x1="50" y1="19" x2="50" y2="79"/>
	
		<line clip-path="url(#SVGID_2_)" fill="none" stroke="#B2B2B2" stroke-width="6" stroke-miterlimit="10" x1="80" y1="50" x2="20" y2="50"/>
</g>
</svg>
