<?xml version="1.0" encoding="utf-8"?>
<!-- Generator: Adobe Illustrator 16.0.0, SVG Export Plug-In . SVG Version: 6.00 Build 0)  -->
<!DOCTYPE svg PUBLIC "-//W3C//DTD SVG 1.1//EN" "http://www.w3.org/Graphics/SVG/1.1/DTD/svg11.dtd">
<svg version="1.1" id="Layer_1" xmlns="http://www.w3.org/2000/svg" xmlns:xlink="http://www.w3.org/1999/xlink" x="0px" y="0px"
	 width="45.362px" height="45.4px" viewBox="0 0 45.362 45.4" enable-background="new 0 0 45.362 45.4" xml:space="preserve">
<g>
	<defs>
		<rect id="SVGID_1_" width="45.363" height="45.4"/>
	</defs>
	<clipPath id="SVGID_2_">
		<use xlink:href="#SVGID_1_"  overflow="visible"/>
	</clipPath>
	<path clip-path="url(#SVGID_2_)" fill="#B2B2B2" d="M27.1,3.9c-0.8,0-1.5,0.7-1.5,1.5v10.3c0,0.2-0.3,0.3-0.399,0.2l-1.5-1.5
		c-0.601-0.6-1.5-0.6-2.1,0s-0.6,1.5,0,2.1l4.4,4.4c0.3,0.3,0.7,0.4,1.1,0.4c0.4,0,0.801-0.2,1.101-0.4l4.399-4.4
		c0.601-0.6,0.601-1.5,0-2.1c-0.6-0.6-1.5-0.6-2.1,0L29,15.9c-0.1,0.1-0.4,0-0.4-0.2V5.4C28.6,4.6,27.9,3.9,27.1,3.9"/>
	<path clip-path="url(#SVGID_2_)" fill="#B2B2B2" d="M17.8,38.8c1.823,0,3.3,1.477,3.3,3.3s-1.477,3.3-3.3,3.3
		c-1.823,0-3.3-1.477-3.3-3.3S15.977,38.8,17.8,38.8"/>
	<path clip-path="url(#SVGID_2_)" fill="#B2B2B2" d="M35,38.8c1.823,0,3.3,1.477,3.3,3.3s-1.477,3.3-3.3,3.3s-3.3-1.477-3.3-3.3
		S33.177,38.8,35,38.8"/>
	<path clip-path="url(#SVGID_2_)" fill="#B2B2B2" d="M15.1,30.8h22.5c0.301,0,0.5-0.2,0.601-0.4l7.1-16.7c0.2-0.4-0.1-0.9-0.6-0.9
		h-8.9c-0.3,0-0.5,0.4-0.399,0.6c0.899,1.7,0.699,3.9-0.801,5.3L30.2,23.1c-0.8,0.8-2,1.3-3.2,1.3s-2.3-0.5-3.2-1.3l-4.3-4.4
		c-1.4-1.4-1.7-3.6-0.8-5.3c0.2-0.3-0.1-0.6-0.4-0.6h-4.1c-0.3,0-0.6-0.2-0.7-0.5L11.1,1.4c-0.2-0.7-0.7-1.1-1.4-1.2L1.6,0
		C0.8,0,0.1,0.6,0,1.4C0,2.2,0.6,2.9,1.4,3l6.4,0.3c0.3,0,0.6,0.2,0.6,0.5l2.1,9L14,27.4c0.1,0.3-0.1,0.7-0.4,0.8
		c-1.7,0.601-2.9,2.2-2.9,4c0,2.3,2,4.3,4.4,4.3h25.1c0.8,0,1.5-0.699,1.5-1.5c0-0.8-0.7-1.5-1.5-1.5h-25c-0.8,0-1.4-0.6-1.4-1.3
		C13.8,31.4,14.4,30.9,15.1,30.8"/>
</g>
</svg>
